<svg width="88" height="88" viewBox="0 0 88 88" fill="none" xmlns="http://www.w3.org/2000/svg">
<circle cx="44" cy="44" r="44" fill="white"/>
<path d="M20.6522 26.7826C18.6406 26.7826 17 28.4305 17 30.4511V58.5761C17 60.5966 18.6406 62.2445 20.6522 62.2445H69.3478C71.3594 62.2445 73 60.5966 73 58.5761V30.4511C73 28.4305 71.3594 26.7826 69.3478 26.7826H60.8261V29.2282H69.3478C70.0183 29.2282 70.5652 29.7776 70.5652 30.4511V56.1304H19.4348V30.4511C19.4348 29.7776 19.9817 29.2282 20.6522 29.2282H29.1739V26.7826H20.6522Z" fill="#21335C"/>
<path fill-rule="evenodd" clip-rule="evenodd" d="M34.6522 17C32.303 17 30.3913 18.9202 30.3913 21.2799V46.3478H29.7826C28.7745 46.3478 27.9565 47.1694 27.9565 48.1821C27.9565 49.1947 28.7745 50.0163 29.7826 50.0163H60.2174C61.2256 50.0163 62.0435 49.1947 62.0435 48.1821C62.0435 47.1694 61.2256 46.3478 60.2174 46.3478H59.6087V21.2799C59.6087 18.9202 57.697 17 55.3478 17H34.6522Z" fill="#365DAB"/>
<path fill-rule="evenodd" clip-rule="evenodd" d="M37.2772 64.6902L36.6685 68.3587H34.0435C34.0055 68.3587 33.9675 68.3587 33.9294 68.3587C33.2589 68.3921 32.7358 68.9653 32.7691 69.6388C32.8024 70.3123 33.373 70.8378 34.0435 70.8043H55.9566C56.3941 70.8091 56.803 70.5798 57.0266 70.1977C57.2453 69.8155 57.2453 69.3474 57.0266 68.9653C56.803 68.5832 56.3941 68.3539 55.9566 68.3587H53.3316L52.7229 64.6902H37.2772Z" fill="#21335C"/>
<path fill-rule="evenodd" clip-rule="evenodd" d="M36.4785 19.4457H40.1307V47.5707H36.4785V19.4457Z" fill="white"/>
</svg>
