<svg width="88" height="88" viewBox="0 0 88 88" fill="none" xmlns="http://www.w3.org/2000/svg">
<circle cx="44" cy="44" r="44" fill="#EF3D25"/>
<path d="M35.605 38.5789V34.6316C35.605 34.6316 35.605 26.7368 43.4997 26.7368C51.3945 26.7368 51.3945 34.6316 51.3945 34.6316V38.5789" stroke="white" stroke-width="2"/>
<path d="M55.7352 60.2894H31.2646C29.2987 60.2894 27.7104 58.7012 27.7104 56.7353V40.1594C27.7104 38.1934 29.2987 36.6052 31.2646 36.6052H55.7352C57.6935 36.6052 59.2894 38.1934 59.2894 40.1594V56.7353C59.2894 58.7012 57.6935 60.2894 55.7352 60.2894Z" fill="white"/>
<path d="M47.4475 48.4474C47.4475 50.6292 45.6819 52.3947 43.5001 52.3947C41.3183 52.3947 39.5527 50.6292 39.5527 48.4474C39.5527 46.2655 41.3183 44.5 43.5001 44.5C45.6819 44.5 47.4475 46.2655 47.4475 48.4474Z" fill="#EF3D25"/>
</svg>
