<svg width="192" height="246" viewBox="0 0 192 246" fill="none" xmlns="http://www.w3.org/2000/svg">
<path d="M191.583 117.861V69.6579C191.583 54.9017 179.45 42.7688 164.693 42.7688H164.038L140.428 66.3787L191.583 117.861Z" fill="#E0E0E0"/>
<path d="M50.9092 66.3792L27.2992 42.7693C12.543 42.7693 0.410156 54.9022 0.410156 69.6584L0.410156 117.206L50.9092 66.3792Z" fill="#E0E0E0"/>
<path d="M64.0258 79.4961L0.410156 143.44L0.410156 180.822L82.3891 98.1873L64.0258 79.4961Z" fill="#E0E0E0"/>
<path d="M127.314 79.4961L108.623 97.8594L191.914 181.15V143.768L127.314 79.4961Z" fill="#E0E0E0"/>
<path d="M95.8341 110.975L31.5626 175.574C18.446 188.691 22.381 210.661 39.1047 218.531L96.162 245.42L152.891 218.859C169.615 211.317 173.222 189.346 160.433 175.902L95.8341 110.975Z" fill="#E0E0E0"/>
<path d="M95.5052 0.467041L53.2041 42.7682L95.5052 84.7413L137.806 42.4402L95.5052 0.467041Z" fill="#E0E0E0"/>
<path d="M104.362 45.3904L106.329 56.5395L96.1639 51.2929L85.9985 56.8674L87.6381 45.0625L79.1123 37.5204L90.9173 35.5529L95.5081 24.7317L101.083 34.8971L112.888 36.5366L104.362 45.3904Z" fill="white"/>
</svg>
