<svg width="228" height="35" viewBox="0 0 228 35" fill="none" xmlns="http://www.w3.org/2000/svg">
<g clip-path="url(#clip0)">
<path d="M27.3335 16.7738V9.88622C27.3335 7.77779 25.5988 6.04419 23.489 6.04419H23.3952L20.0195 9.41768L27.3335 16.7738Z" fill="#EF3D25"/>
<path d="M7.22023 9.41768L3.84454 6.04419C1.73473 6.04419 0 7.77779 0 9.88622V16.6801L7.22023 9.41768Z" fill="#EF3D25"/>
<path d="M9.09562 11.2919L0 20.4284V25.7698L11.7212 13.9626L9.09562 11.2919Z" fill="#038141"/>
<path d="M18.1446 11.2919L15.4722 13.9157L27.3809 25.8166V20.4753L18.1446 11.2919Z" fill="#038141"/>
<path d="M13.6433 15.7898L4.45388 25.02C2.57849 26.8942 3.14111 30.0334 5.53222 31.1579L13.6902 35L21.8012 31.2048C24.1923 30.1271 24.708 26.9879 22.8795 25.0669L13.6433 15.7898Z" fill="#21335C"/>
<path d="M13.5965 0L7.54834 6.04418L13.5965 12.0415L19.6446 5.99732L13.5965 0Z" fill="#365DAB"/>
<path d="M14.8626 6.41897L15.1439 8.01201L13.6904 7.26234L12.237 8.05886L12.4714 6.37212L11.2524 5.29447L12.9403 5.01335L13.5967 3.46716L14.3937 4.91964L16.0816 5.15391L14.8626 6.41897Z" fill="#FCEE25"/>
<path d="M53.2609 20.0536H43.7433C43.8371 21.1312 44.2121 21.9746 44.7748 22.49C45.3374 23.0523 46.0875 23.3334 47.0721 23.3334C48.4786 23.3334 49.4632 22.7243 49.979 21.5061H52.9796C52.6514 22.818 51.9481 23.8488 50.9166 24.5984C49.8852 25.3481 48.5724 25.7229 47.0721 25.7229C45.1967 25.7229 43.6495 25.1138 42.4774 23.8956C41.3053 22.6774 40.7427 21.0844 40.7427 19.0697C40.7427 17.0549 41.3053 15.4619 42.4774 14.2437C43.6495 13.0255 45.1498 12.4164 47.0252 12.4164C48.9475 12.4164 50.4947 13.0723 51.6199 14.3374C52.7451 15.6025 53.3078 17.2424 53.3078 19.3039V20.0536H53.2609ZM43.7902 17.8515H50.1665C50.0258 16.9144 49.6976 16.1647 49.135 15.6493C48.5724 15.0871 47.8691 14.8528 46.9783 14.8528C45.1498 14.8528 44.0715 15.8367 43.7902 17.8515Z" fill="#21335C"/>
<path d="M56.6835 24.2236C55.3707 23.1459 54.7144 21.6466 54.7144 19.6319H57.9963C57.9963 20.8969 58.3714 21.7872 59.1215 22.3026C59.8717 22.8648 60.95 23.0991 62.3566 23.0991C63.5287 23.0991 64.3726 22.8648 64.9821 22.4431C65.5916 22.0214 65.8729 21.3655 65.8729 20.569C65.8729 19.8661 65.5916 19.3507 65.0759 18.9759C64.5601 18.6011 63.6224 18.2731 62.2628 17.992L60.7625 17.7109C57.0117 17.008 55.0894 15.2276 55.0894 12.3695C55.0894 10.8702 55.652 9.65195 56.8242 8.76172C57.9963 7.8715 59.5904 7.40295 61.6064 7.40295C63.9506 7.40295 65.6854 7.91835 66.8575 8.90228C68.0296 9.88622 68.686 11.2918 68.7329 13.0254H65.4978C65.4509 12.0415 65.0759 11.2918 64.5133 10.8233C63.9038 10.3548 62.9661 10.1205 61.6533 10.1205C60.6218 10.1205 59.8717 10.3079 59.3091 10.6827C58.7464 11.0576 58.512 11.573 58.512 12.2758C58.512 12.9786 58.7464 13.5408 59.2622 13.9157C59.7779 14.2905 60.6687 14.6185 61.9346 14.8996L63.4818 15.1807C65.5447 15.6024 67.045 16.2115 67.9358 17.008C68.8266 17.8046 69.2955 18.9291 69.2955 20.3815C69.2955 22.1151 68.686 23.427 67.4201 24.3641C66.1542 25.3012 64.4195 25.7698 62.169 25.7698C59.8248 25.8166 57.9963 25.3012 56.6835 24.2236Z" fill="#21335C"/>
<path d="M83.6422 20.0536H74.0778C74.1715 21.1312 74.5466 21.9746 75.1092 22.49C75.6718 23.0523 76.422 23.3334 77.4066 23.3334C78.8131 23.3334 79.7977 22.7243 80.3134 21.5061H83.314C82.9858 22.818 82.2826 23.8488 81.2511 24.5984C80.2197 25.3481 78.9069 25.7229 77.4066 25.7229C75.5312 25.7229 73.984 25.1138 72.8119 23.8956C71.6398 22.6774 71.0771 21.0844 71.0771 19.0697C71.0771 17.0549 71.6398 15.4619 72.8119 14.2437C73.984 13.0255 75.4843 12.4164 77.3597 12.4164C79.282 12.4164 80.8292 13.0723 81.9544 14.3374C83.0796 15.6025 83.6422 17.2424 83.6422 19.3039V20.0536ZM74.1247 17.8515H80.501C80.3603 16.9144 80.0321 16.1647 79.4695 15.6493C78.9069 15.0871 78.2036 14.8528 77.3128 14.8528C75.4843 14.8528 74.406 15.8367 74.1247 17.8515Z" fill="#21335C"/>
<path d="M93.3004 12.5569V15.415H92.5033C91.3312 15.415 90.3935 15.6961 89.784 16.3052C89.1745 16.9143 88.8463 17.8045 88.8463 18.9759V25.4417H85.752V12.6974H88.7526V14.9933C89.4558 13.3534 90.7217 12.51 92.5502 12.51C92.8315 12.51 93.066 12.51 93.3004 12.5569Z" fill="#21335C"/>
<path d="M103.943 12.6975H107.178L102.443 25.4418H98.8799L94.1445 12.6975H97.4733L98.6923 16.1179C99.255 17.8983 99.9582 20.0536 100.708 22.5837C101.318 20.5221 101.974 18.3669 102.724 16.071L103.943 12.6975Z" fill="#21335C"/>
<path d="M108.491 25.4417V12.6974H111.586V25.4417H108.491ZM108.491 11.0575V8.15259H111.539V11.0575H108.491Z" fill="#21335C"/>
<path d="M115.336 23.8956C114.164 22.6774 113.602 21.0844 113.602 19.0697C113.602 17.0081 114.164 15.415 115.336 14.1968C116.462 12.9786 118.009 12.4164 119.884 12.4164C121.525 12.4164 122.885 12.8381 123.963 13.7283C124.995 14.6185 125.651 15.7899 125.792 17.2892H122.697C122.557 16.5395 122.228 15.9773 121.713 15.6025C121.197 15.2276 120.587 14.9934 119.884 14.9934C118.9 14.9934 118.149 15.3213 117.587 16.0241C117.024 16.727 116.743 17.7109 116.743 19.0697C116.743 20.4284 117.024 21.4124 117.587 22.1152C118.149 22.818 118.9 23.146 119.837 23.146C120.587 23.146 121.244 22.9586 121.759 22.5369C122.275 22.1152 122.603 21.5061 122.697 20.7096H125.792C125.604 22.2557 124.995 23.4739 123.916 24.3642C122.838 25.2544 121.478 25.7229 119.837 25.7229C118.056 25.7229 116.508 25.1138 115.336 23.8956Z" fill="#21335C"/>
<path d="M139.763 20.0536H130.245C130.339 21.1312 130.714 21.9746 131.277 22.49C131.839 23.0523 132.589 23.3334 133.574 23.3334C134.981 23.3334 135.965 22.7243 136.481 21.5061H139.482C139.153 22.818 138.45 23.8488 137.419 24.5984C136.387 25.3481 135.074 25.7229 133.574 25.7229C131.699 25.7229 130.151 25.1138 128.979 23.8956C127.807 22.6774 127.245 21.0844 127.245 19.0697C127.245 17.0549 127.807 15.4619 128.979 14.2437C130.151 13.0255 131.652 12.4164 133.527 12.4164C135.449 12.4164 136.997 13.0723 138.122 14.3374C139.247 15.6025 139.81 17.2424 139.81 19.3039V20.0536H139.763ZM130.292 17.8515H136.668C136.528 16.9144 136.2 16.1647 135.637 15.6493C135.074 15.0871 134.371 14.8528 133.48 14.8528C131.652 14.8528 130.573 15.8367 130.292 17.8515Z" fill="#21335C"/>
<path d="M141.029 21.4123H144.076C144.17 22.2088 144.405 22.771 144.873 23.099C145.295 23.427 145.999 23.6144 146.936 23.6144C148.624 23.6144 149.468 23.099 149.468 22.0682C149.468 21.5997 149.281 21.2717 148.905 20.9906C148.53 20.7095 147.874 20.522 146.936 20.3815L145.483 20.1472C142.717 19.6787 141.31 18.4136 141.31 16.3052C141.31 15.087 141.779 14.1499 142.67 13.4939C143.561 12.838 144.873 12.4631 146.561 12.4631C150.218 12.4631 152.094 13.9156 152.187 16.7737H149.234C149.187 16.024 148.952 15.4618 148.53 15.1807C148.108 14.8527 147.405 14.7121 146.561 14.7121C145.061 14.7121 144.358 15.2275 144.358 16.2115C144.358 16.6331 144.545 16.9611 144.873 17.1954C145.202 17.4297 145.764 17.6171 146.514 17.7576L148.108 17.9919C149.656 18.273 150.781 18.6947 151.484 19.3038C152.187 19.9129 152.516 20.7563 152.516 21.834C152.516 23.099 152 24.0829 151.015 24.7858C150.031 25.4886 148.624 25.8165 146.843 25.8165C143.139 25.7697 141.216 24.3172 141.029 21.4123Z" fill="#21335C"/>
<path d="M153.969 25.4418V21.9277H157.579V25.4418H153.969Z" fill="#EF3D25"/>
<path d="M168.41 12.6974H171.41V25.02C171.41 26.7536 170.848 28.1124 169.769 29.0963C168.691 30.0803 167.144 30.5957 165.128 30.5957C163.346 30.5957 161.94 30.2208 160.955 29.4243C159.924 28.6278 159.408 27.5502 159.267 26.1445H162.315C162.455 27.5033 163.393 28.2061 165.175 28.2061C166.206 28.2061 166.956 27.925 167.519 27.4096C168.035 26.8942 168.316 26.0977 168.316 25.1137V23.5207C167.378 24.7858 166.112 25.4417 164.425 25.4417C162.69 25.4417 161.283 24.8326 160.252 23.6613C159.22 22.4899 158.658 20.9437 158.658 18.9759C158.658 17.008 159.173 15.4149 160.252 14.2436C161.283 13.0722 162.69 12.4631 164.378 12.4631C166.159 12.4631 167.519 13.1659 168.41 14.5247V12.6974ZM167.519 21.7871C168.082 21.0843 168.363 20.1472 168.363 18.8821C168.363 17.6171 168.082 16.68 167.519 15.9772C166.956 15.2744 166.159 14.9464 165.081 14.9464C164.096 14.9464 163.299 15.2744 162.69 15.9772C162.08 16.68 161.799 17.6639 161.799 18.8821C161.799 20.1004 162.08 21.0374 162.69 21.7402C163.252 22.4431 164.049 22.771 165.081 22.771C166.112 22.8179 166.909 22.4899 167.519 21.7871Z" fill="#21335C"/>
<path d="M179.943 25.7229C178.021 25.7229 176.427 25.1138 175.255 23.8956C174.036 22.6774 173.473 21.0844 173.473 19.0697C173.473 17.0549 174.083 15.415 175.255 14.2437C176.427 13.0255 178.021 12.4164 179.943 12.4164C181.865 12.4164 183.46 13.0255 184.632 14.1968C185.804 15.415 186.413 17.0081 186.413 19.0697C186.413 21.0844 185.804 22.6774 184.632 23.8956C183.46 25.1138 181.912 25.7229 179.943 25.7229ZM182.381 22.1152C182.944 21.4124 183.272 20.3816 183.272 19.0697C183.272 17.7577 182.991 16.7738 182.381 16.0241C181.819 15.3213 180.975 14.9465 179.943 14.9465C178.912 14.9465 178.115 15.3213 177.505 16.0241C176.896 16.727 176.614 17.7577 176.614 19.0697C176.614 20.3816 176.896 21.4124 177.505 22.1152C178.068 22.818 178.912 23.1928 179.943 23.1928C180.975 23.146 181.819 22.818 182.381 22.1152Z" fill="#21335C"/>
<path d="M196.446 12.6975H199.681L194.946 25.4418H191.383L186.647 12.6975H189.976L191.195 16.1179C191.758 17.8983 192.461 20.0536 193.211 22.5837C193.821 20.5221 194.477 18.3669 195.227 16.071L196.446 12.6975Z" fill="#21335C"/>
<path d="M198.65 25.4418V21.9277H202.26V25.4418H198.65Z" fill="#EF3D25"/>
<path d="M203.761 21.4123H206.808C206.902 22.2088 207.136 22.771 207.605 23.099C208.027 23.427 208.731 23.6144 209.668 23.6144C211.356 23.6144 212.2 23.099 212.2 22.0682C212.2 21.5997 212.012 21.2717 211.637 20.9906C211.262 20.7095 210.606 20.522 209.668 20.3815L208.215 20.1472C205.449 19.6787 204.042 18.4136 204.042 16.3052C204.042 15.087 204.511 14.1499 205.402 13.4939C206.293 12.838 207.605 12.4631 209.293 12.4631C212.95 12.4631 214.825 13.9156 214.919 16.7737H211.966C211.919 16.024 211.684 15.4618 211.262 15.1807C210.84 14.8527 210.137 14.7121 209.293 14.7121C207.793 14.7121 207.09 15.2275 207.09 16.2115C207.09 16.6331 207.277 16.9611 207.605 17.1954C207.933 17.4297 208.496 17.6171 209.246 17.7576L210.84 17.9919C212.388 18.273 213.513 18.6947 214.216 19.3038C214.919 19.9129 215.247 20.7563 215.247 21.834C215.247 23.099 214.732 24.0829 213.747 24.7858C212.763 25.4886 211.356 25.8165 209.574 25.8165C205.871 25.7697 203.948 24.3172 203.761 21.4123Z" fill="#21335C"/>
<path d="M216.56 21.4123H219.608C219.701 22.2088 219.936 22.771 220.405 23.099C220.827 23.427 221.53 23.6144 222.468 23.6144C224.155 23.6144 224.999 23.099 224.999 22.0682C224.999 21.5997 224.812 21.2717 224.437 20.9906C224.062 20.7095 223.405 20.522 222.468 20.3815L221.014 20.1472C218.248 19.6787 216.841 18.4136 216.841 16.3052C216.841 15.087 217.31 14.1499 218.201 13.4939C219.092 12.838 220.405 12.4631 222.092 12.4631C225.749 12.4631 227.625 13.9156 227.719 16.7737H224.765C224.718 16.024 224.484 15.4618 224.062 15.1807C223.64 14.8527 222.936 14.7121 222.092 14.7121C220.592 14.7121 219.889 15.2275 219.889 16.2115C219.889 16.6331 220.076 16.9611 220.405 17.1954C220.733 17.4297 221.295 17.6171 222.046 17.7576L223.64 17.9919C225.187 18.273 226.312 18.6947 227.015 19.3038C227.719 19.9129 228.047 20.7563 228.047 21.834C228.047 23.099 227.531 24.0829 226.546 24.7858C225.562 25.4886 224.155 25.8165 222.374 25.8165C218.67 25.7697 216.701 24.3172 216.56 21.4123Z" fill="#21335C"/>
</g>
<defs>
<clipPath id="clip0">
<rect width="228" height="35" fill="white"/>
</clipPath>
</defs>
</svg>
